slaver_faction = {
	election_header = "GFX_faction_header_yellow"
	guiding_ethic = ethic_slave_keeper

	unique = yes
	support_multiplier = 1

	resources = {
		category = pop_factions
		produces = {
			influence = 2
		}
	}

	is_potential = {
		years_passed > 10
		has_encountered_other_species = yes
		NOT = { has_ethic = ethic_gestalt_consciousness }
		NOT = { has_country_flag = suppress_vanilla_factions }
		OR = {
			is_authoritarian_f_atlas = yes
			is_authoritarian_atlas = yes
			is_xenophile_f_atlas = yes
			is_xenophile_atlas = yes
		}
	}

	parameters = {
		empire = {
			type = country
			valid_objects = {
				is_same_value = root
			}
		}
	}

	can_join_faction = {
		is_enslaved = no
		is_shackled_robot = no
		is_being_purged = no
		NOT = { has_trait = trait_nerve_stapled }
	}

	attraction = {
		base = 150

		modifier = {
			factor = 1.25
			exists = from
			from = {
				exists = leader
				leader = { leader_class = ruler }
			}
		}

		modifier = {
			factor = 0.75
			exists = from
			from = {
				NOT = { exists = leader }
			}
		}

		# Should really check for citizenship instead
		modifier = {
			factor = 0.25
			NOT = { is_same_species = owner_species }
		}
	}

	leader = {
		base = 100

		modifier = {
			factor = 0.0
			is_event_leader = yes
		}
	}

	demand = {
		title = "FACTION_OUTRAGED_GC"
		unfulfilled_title = "FACTION_OUTRAGED_GC"
		desc = "FACTION_OUTRAGED_GC_DESC"

		fulfilled_effect = -20
		unfulfilled_effect = -0.001

		potential = {
			exists = owner
			owner = {
				has_country_flag = faction_slave_keeper_outraged_gc
			}
		}

		trigger = {
			owner = {
				has_country_flag = faction_slave_keeper_outraged_gc
			}
		}
	}

	demand = {
		title = "TOTALITARIAN_AUTOCRACY"
		unfulfilled_title = "TOTALITARIAN_NO_AUTOCRACY"
		desc = "TOTALITARIAN_AUTOCRACY_DESC"

		fulfilled_effect = 10
		unfulfilled_effect = -0.001

		potential = {
			exists = owner
			owner = {
				NOT = { has_authority = auth_democratic }
			}
		}

		trigger = {
			owner = {
				OR = {
					has_authority = auth_imperial
					has_authority = auth_dictatorial
				}
			}
		}
	}

	demand = {
		title = "TOTALITARIAN_DEMOCRACY"
		unfulfilled_title = "TOTALITARIAN_NO_DEMOCRACY"
		desc = "TOTALITARIAN_DEMOCRACY_DESC"

		unfulfilled_effect = -25
		fulfilled_effect = 0.001

		potential = {
			exists = owner
			owner = {
				NOR = {
					has_authority = auth_imperial
					has_authority = auth_dictatorial
				}
			}
		}

		trigger = {
			owner = {
				NOT = { has_authority = auth_democratic }
			}
		}
	}

	demand = {
		title = "TOTALITARIAN_STRATIFICATION"
		unfulfilled_title = "TOTALITARIAN_NO_STRATIFICATION"
		desc = "TOTALITARIAN_STRATIFICATION_DESC"

		fulfilled_effect = 10
		unfulfilled_effect = -20

		potential = {
			exists = owner
		}

		trigger = {
			owner = {
				OR = {
					NOT = {
						any_owned_species = {
							NOR = {
								has_living_standard = { type = living_standard_stratified country = prev }
								has_living_standard = { type = living_standard_academic_privilege country = prev }
							}
						}
					}
					any_owned_species = {
						OR = {
							has_citizenship_type = { type = citizenship_slavery country = prev }
							has_citizenship_type = { type = citizenship_purge country = prev }
							has_citizenship_type = { type = citizenship_robot_servitude country = prev }
						}
					}
					has_civic = civic_slaver_guilds
				}
			}
		}
	}

	demand = {
		title = "TOTALITARIAN_ELITISM"
		unfulfilled_title = "TOTALITARIAN_NO_ELITISM"
		desc = "TOTALITARIAN_ELITISM_DESC"

		fulfilled_effect = 5
		unfulfilled_effect = -5

		potential = {
			exists = owner
			owner = {
				OR = {
					has_technology = tech_selected_lineages
					has_technology = tech_capacity_boosters
				}
			}
		}

		trigger = {
			owner = {
				OR = {
					has_policy_flag = leader_enhancement_selected_lineages
					has_policy_flag = leader_enhancement_capacity_boosters
				}
			}
		}
	}

	demand = {
		title = "TOTALITARIAN_EXTRANATIONAL_AUTHORITY"
		unfulfilled_title = "TOTALITARIAN_NO_EXTRANATIONAL_AUTHORITY"
		desc = "TOTALITARIAN_EXTRANATIONAL_AUTHORITY_DESC"

		fulfilled_effect = 10
		unfulfilled_effect = -0.001

		potential = {
			exists = owner
			owner = {
				num_communications > 2
			}
		}

		trigger = {
			owner = {
				is_overlord = yes
			}
		}
	}

	demand = {
		title = "TOTALITARIAN_UNDERLING"
		unfulfilled_title = "TOTALITARIAN_NOT_UNDERLING"
		desc = "TOTALITARIAN_UNDERLING_DESC"

		unfulfilled_effect = -10
		fulfilled_effect = 0.001

		potential = {
			exists = owner
			owner = {
				is_subject = yes
			}
		}

		trigger = {
			owner = {
				is_subject = yes
			}
		}
	}

	on_create = {
		pop_faction_event = { id = factions.1 }
	}

	on_destroy = {
		if = {
			limit = {
				has_modifier = promoted_slave_keeper
			}
			remove_modifier = promoted_slave_keeper
		}
		if = {
			limit = {
				has_modifier = suppressed_slave_keeper
			}
			remove_modifier = suppressed_slave_keeper
		}
	}

	actions = {
		embrace_faction = {
			title = "EMBRACE_FACTION"
			description = "EMBRACE_FACTION_DESC"

			cost = {
				influence = 500
			}

			potential = {
				exists = owner
				owner = {
					OR = {
						is_subject = no
						NOT = { is_subject_type = dominion }
					}
				}
			}

			valid = {
				custom_tooltip = {
					fail_text = EMBRACE_FACTION_COOLDOWN
					parameter:empire = {
						NOT = { has_modifier = embraced_faction_timer }
					}
				}
				support > 0.20
				parameter:empire = {
					NOT = { has_ethic = "ethic_fanatic_slave_keeper" }
				}
			}

			effect = {
				add_modifier = { modifier = embraced_faction days = 3600 }
				parameter:empire = {
					shift_ethic = ethic_slave_keeper
					hidden_effect = {
						add_modifier = { modifier = embraced_faction_timer days = 3600 }
						every_pop_faction = {
							limit = { NOT = { is_same_value = root } }
							add_modifier = { modifier = embraced_another_faction days = 3600 }
						}
					}
				}
				hidden_effect = {
					save_event_target_as = TargetFaction
					parameter:empire = {
						every_relation = {
							limit = {
								is_ai = no
								is_country_type = default
								has_communications = prev
								has_intel_level = {
									who = prev
									category = government
									level >= 1
								}
							}
							country_event = { id = factions.2000 }
						}
					}
				}
			}

			ai_weight = {
				base = 1
				modifier = {
					factor = 0
					support < 0.50
					owner = {
						has_ethic = ethic_slave_keeper
					}
				}
				modifier = {
					factor = 0
					owner = { has_valid_civic = civic_fanatic_purifiers }
				}
				modifier = {
					factor = 0
					NOT = {
						owner = {
							exists = ruler
							ruler = {
								leader_of_faction = slaver_faction
							}
						}
					}
				}
				modifier = {
					factor = 0
					owner = {
						count_pop_faction = {
							count < 4
						}
					}
				}
			}
		}
		promote_faction = {
			title = "PROMOTE_FACTION"
			description = "PROMOTE_FACTION_DESC"

			potential = {
				exists = owner
				parameter:empire = {
					NOR = {
						has_modifier = suppressed_slave_keeper
						has_modifier = promoted_slave_keeper
					}
				}
			}

			effect = {
				parameter:empire = {
					add_modifier = { modifier = promoted_slave_keeper days = -1 }
				}
			}

			ai_weight = {
				base = 0
			}
		}
		cancel_promote_faction = {
			title = "CANCEL_PROMOTE_FACTION"
			description = "CANCEL_PROMOTE_FACTION_DESC"

			potential = {
				exists = owner
				parameter:empire = {
					has_modifier = promoted_slave_keeper
				}
			}

			effect = {
				parameter:empire = {
					remove_modifier = promoted_slave_keeper
				}
			}

			ai_weight = {
				base = 0
			}
		}
		suppress_faction = {
			title = "SUPPRESS_FACTION"
			description = "SUPPRESS_FACTION_DESC"

			potential = {
				exists = owner
				parameter:empire = {
					NOR = {
						has_modifier = suppressed_slave_keeper
						has_modifier = promoted_slave_keeper
					}
				}
			}

			effect = {
				add_modifier = { modifier = suppressed_faction days = -1 }
				parameter:empire = {
					add_modifier = { modifier = suppressed_slave_keeper days = -1 }
				}
			}

			ai_weight = {
				base = 0
			}
		}
		cancel_suppress_faction = {
			title = "CANCEL_SUPPRESS_FACTION"
			description = "CANCEL_SUPPRESS_FACTION_DESC"

			potential = {
				exists = owner
				parameter:empire = {
					has_modifier = suppressed_slave_keeper
				}
			}

			effect = {
				remove_modifier = suppressed_faction
				parameter:empire = {
					remove_modifier = suppressed_slave_keeper
				}
			}

			ai_weight = {
				base = 0
			}
		}
	}
}
