# from = country
# this = species


military_service_full = {
	token = military_service_full

	potential = {
		if = {
			limit = {
				from = { has_authority = auth_machine_intelligence }
			}
			OR = {
				has_trait = trait_machine_unit
				has_trait = trait_mechanical
				has_trait = trait_cybernetic
			}
		}
	}

	allow = {
		hidden_trigger = { exists = from }
		custom_tooltip = {
			fail_text = MACHINE_NO_PURE_ORGANIC_SOLDIERS
			if = {
				limit = {
					from = { has_authority = auth_machine_intelligence }
				}
				OR = {
					has_trait = trait_mechanical
					has_trait = trait_machine_unit
					AND = {
						has_trait = trait_cybernetic
						from = {
							has_civic = civic_machine_assimilator
						}
					}
				}
			}
		}
		custom_tooltip = {
			fail_text = is_undesirables_tooltip
			NOR = {
				has_citizenship_type = { country = from type = citizenship_purge_machine }
				has_citizenship_type = { country = from type = citizenship_purge }
			}
		}
		custom_tooltip = {
			fail_text = is_slaves_tooltip
			NOT = { has_citizenship_type = { country = from type = citizenship_slavery } }
		}
		custom_tooltip = {
			fail_text = is_servitude_tooltip
			NOT = { has_citizenship_type = { country = from type = citizenship_robot_servitude } }
		}
		custom_tooltip = {
			fail_text = too_alien
			OR = {
				is_same_species = from
				from = {
					NOR = {
						is_xenophobe_f_atlas = yes
						is_xenophobe_atlas = yes
					}
				}
			}
		}
		custom_tooltip = {
			fail_text = "HIVE_MIND_SPECIES_CITIZENS_ONLY"
			OR = {
				NOT = { from = { has_authority = auth_hive_mind } }
				has_trait = trait_hive_mind
			}
		}
		custom_tooltip = {
			fail_text = NON_MACHINE_SPECIES_NEED_PREREQ_TECH
			if = {
				limit = {
					OR = {
						has_trait = trait_mechanical
						has_trait = trait_machine_unit
					}
				}
				from = {
					OR = {
						has_authority = auth_machine_intelligence
						has_technology = tech_droid_workers
					}
				}
			}
		}
		custom_tooltip = {
			fail_text = nerve_stapled_cannot_lead_armies
			NOT = { has_trait = trait_nerve_stapled }
		}
	}
	ai_will_do = {
		factor = 5
		modifier = {
			factor = 0
			from = { has_valid_ai_personality = no }
		}
		modifier = {
			factor = 0
			from = {
				has_valid_ai_personality = yes
				NOT = {
					has_ai_personality_behaviour = multispecies
				}
			}
		}
	}
}

military_service_limited = {
	token = military_service_limited
	name = military_service_limited

	potential = {
		from = { NOT = { has_ethic = ethic_gestalt_consciousness } }
	}

	allow = {
		hidden_trigger = { exists = from }
		custom_tooltip = {
			fail_text = same_species_disallowed
			NOT = { is_same_species = from }
		}
		custom_tooltip = {
			fail_text = species_is_being_purged
			NOR = {
				has_citizenship_type = { country = from type = citizenship_purge_machine }
				has_citizenship_type = { country = from type = citizenship_purge }
			}
		}
		custom_tooltip = {
			fail_text = NON_MACHINE_SPECIES_NEED_PREREQ_TECH
			if = {
				limit = {
					OR = {
						has_trait = trait_mechanical
						has_trait = trait_machine_unit
					}
				}
				from = {
					OR = {
						has_authority = auth_machine_intelligence
						has_technology = tech_droid_workers
					}
				}
			}
		}
	}
	ai_will_do = {
		factor = 1
	}
}

military_service_none = {
	token = military_service_none
	name = military_service_none

	potential = {
		OR = {
			from = { NOT = { has_authority = auth_hive_mind } }
			NOT = { has_trait = trait_hive_mind }
		}
	}

	allow = {
		hidden_trigger = { exists = from }
		custom_tooltip = {
			fail_text = same_species_disallowed
			NOT = { is_same_species = from }
		}
		custom_tooltip = {
			fail_text = species_has_military_slavery
			NOT = {
				has_slavery_type = { country = from type = slavery_military }
			}
		}
		custom_tooltip = {
			fail_text = MACHINE_SPECIES_NOT_MACHINE
			if = {
				limit = {
					from = { has_authority = auth_machine_intelligence }
				}
				NOR = {
					has_trait = trait_mechanical
					has_trait = trait_machine_unit
				}
			}
		}
	}
	ai_will_do = {
		factor = 0
	}
}
