default = {
	has_difficulty_bonuses = yes
	counts_for_victory = yes
	pop_growth = yes
	playable = yes
	has_pulse_events = yes
	piracy_risk = yes
	randomize_ethos = yes
	shuffle_pop_ethos = yes
	needs_survey = yes
	diplomatic_wars = yes
	ship_disengagement = yes
	army_disengagement = yes
	relations = yes
	observable = yes
	can_use_invalid_technology = no
	can_receive_envoys = yes

	ai = {
		enabled = yes
		declare_war = yes
		min_navy_for_wars = 0.5
		min_assault_armies_for_wars = @armies_for_declaring_war
		colonizer = yes
		internal_policies = yes
		modification = yes
		government = yes
		traditions = yes
		ascension_perks = yes
		construction = yes
		follow = yes
		can_use_market = yes
		modules = {
			military_minister_module
			foreign_minister_module
			interior_minister_module
		}

		ship_data = {
			constructor = {
				min = 4
				max = 6
			}

			science	= {
				min = 4
				max = 6
			}

			colonizer = {
				min = 1
				max = 1
			}

			juggernaut = {
				min = 1
				max = 1
			}

			colossus = {
				min = 1
				max = 1
			}

			star_eater = {
				min = 1
				max = 1
			}

			titan = {
				min = 1
				max = 2
			}

			battleship = {
				fraction = {
					modifier = {
						add = 25
						has_technology = tech_battleships
					}
				}
			}

			cruiser = {
				fraction = {
					modifier = {
						add = 35
						has_technology = tech_cruisers
					}
					modifier = {
						add = -10
						has_technology = tech_battleships
					}
				}
			}

			destroyer = {
				fraction = {
					modifier = {
						add = 50
						has_technology = tech_destroyers
					}
					modifier = {
						add = -15
						has_technology = tech_cruisers
					}
					modifier = {
						add = -10
						has_technology = tech_battleships
					}
				}
			}

			corvette = {
				fraction = {
					base = 100
					modifier = {
						add = -25
						has_technology = tech_destroyers
					}
					modifier = {
						add = -45
						has_technology = tech_cruisers
					}
					modifier = {
						add = -5
						has_technology = tech_battleships
					}
				}
			}

			crisis_cruiser = {
				fraction = {
					modifier = {
						add = 35
						has_crisis_level = crisis_level_4
					}
				}
			}

			crisis_destroyer = {
				fraction = {
					modifier = {
						add = 50
						has_crisis_level = crisis_level_3
					}
					modifier = {
						add = -15
						has_crisis_level = crisis_level_4
					}
				}
			}

			crisis_corvette = {
				fraction = {
					modifier = {
						add = 100
						has_crisis_level = crisis_level_2
					}
					modifier = {
						add = -25
						has_crisis_level = crisis_level_3
					}
					modifier = {
						add = -45
						has_crisis_level = crisis_level_4
					}
				}
			}

			space_dragon_origin_baby = {
				max = 10
				fraction = {
					modifier = {
						add = 1000
						is_dragon_breeder_country = yes
					}
				}
			}
		}

		army_data = {
			assault_army = {
				fraction = {
					factor = 100
					modifier = {
						factor = 0
						OR = {
							has_authority = auth_machine_intelligence
							has_technology = tech_telepathy
							has_technology = tech_gene_seed_purification
							AND = {
								OR = {
									is_militarist_f_atlas = yes
									is_militarist_atlas = yes
								}
								has_technology = tech_gene_banks
							}
							AND = {
								has_ai_personality_behaviour = slaver
								has_technology = tech_neural_implants
							}
							AND = {
								has_ai_personality_behaviour = robot_liberator
								has_technology = tech_droid_workers
							}
						}
					}
				}
			}

			slave_army = {
				fraction = {
					factor = 100
					modifier = {
						factor = 0
						OR = {
							has_authority = auth_machine_intelligence
							has_technology = tech_telepathy
							has_technology = tech_gene_seed_purification
							AND = {
								OR = {
									is_militarist_f_atlas = yes
									is_militarist_atlas = yes
								}
								has_technology = tech_gene_banks
							}
							NAND = {
								has_ai_personality_behaviour = slaver
								has_technology = tech_neural_implants
							}
							AND = {
								has_ai_personality_behaviour = robot_liberator
								has_technology = tech_droid_workers
							}
						}
					}
				}
			}

			robotic_army = {
				fraction = {
					factor = 100
					modifier = {
						factor = 0
						OR = {
							has_authority = auth_machine_intelligence
							has_technology = tech_telepathy
							has_technology = tech_gene_seed_purification
							NAND = {
								has_ai_personality_behaviour = robot_liberator
								has_technology = tech_droid_workers
							}
						}
					}
				}
			}

			clone_army = {
				fraction = {
					factor = 100
					modifier = {
						factor = 0
						OR = {
							OR = {
								NOT = { has_authority = auth_machine_intelligence }
								has_civic = civic_machine_assimilator
							}
							has_technology = tech_telepathy
							has_technology = tech_gene_seed_purification
							NAND = {
								OR = {
									is_militarist_f_atlas = yes
									is_militarist_atlas = yes
								}
								has_technology = tech_gene_banks
							}
						}
					}
				}
			}

			psionic_army = {
				fraction = {
					factor = 100
					modifier = {
						factor = 0
						OR = {
							has_authority = auth_machine_intelligence
							NOT = { has_technology = tech_telepathy }
							has_technology = tech_gene_seed_purification
						}
					}
				}
			}

			gene_warrior_army = {
				fraction = {
					factor = 100
					modifier = {
						factor = 0
						OR = {
							has_authority = auth_machine_intelligence
							NOT = { has_technology = tech_gene_seed_purification }
						}
					}
				}
			}

			machine_assault_1 = {
				fraction = {
					factor = 100
					modifier = {
						factor = 0
						OR = {
							NOT = { has_authority = auth_machine_intelligence }
							has_technology = tech_adaptive_combat_algorithms
						}
					}
				}
			}

			machine_assault_2 = {
				fraction = {
					factor = 100
					modifier = {
						factor = -25
						has_technology = tech_biomechanics
					}
					modifier = {
						factor = 0
						OR = {
							NOT = { has_authority = auth_machine_intelligence }
							NOT = { has_technology = tech_adaptive_combat_algorithms }
						}
					}
				}
			}

			machine_assault_3 = {
				fraction = {
					factor = 25
					modifier = {
						factor = 0
						OR = {
							NOT = { has_authority = auth_machine_intelligence }
							NOT = { has_technology = tech_biomechanics }
						}
					}
				}
			}
		}

	}

	trade_routes_available = {
		is_gestalt = no
	}

	modules = {
		standard_event_module = {}
		standard_economy_module = {}
		standard_leader_module = {}
		standard_diplomacy_module = { contact_rule = does_first_contact_sites }
		standard_technology_module = {}
		standard_trade_routes_module = {}
		standard_pop_factions_module = {}
		standard_expansion_module = {}
		standard_species_rights_module = {}
	}

	resources = {
		category = country_base
		produces = {
			energy = 20
			minerals = 20
			physics_research = 10
			society_research = 10
			engineering_research = 10
			influence = 3
			unity = 5
			alloys = 5
		}
		produces = {
			trigger = {
				OR = {
					is_gestalt = no
					has_valid_civic = civic_machine_servitor
				}
			}
			consumer_goods = 10
		}
		produces = {
			trigger = {
				OR = {
					is_regular_empire = yes
					is_hive_empire = yes
				}
				is_lithoid_empire = no
			}
			food = 10
		}
		produces = {
			trigger = {
				OR = {
					is_regular_empire = yes
					is_hive_empire = yes
				}
				is_lithoid_empire = yes
			}
			minerals = 10
		}
		produces = {
			trigger = {
				is_machine_empire = yes
			}
			energy = 10
			minerals = 10
		}
	}

	# planet scope
	branch_office_resources = {
		category = planet_branch_offices
		cost = {
			energy = 1000
			influence = 50
		}
	}
}

# Global Event Country - Do Not Remove
global_event = {
	share_communications = no
	default_ships = no
	government = no
	observable = no
	ai = {
		enabled = no
	}
	faction = {
		hostile = no
		needs_border_access = no
		generate_borders = no
		needs_colony = no
		auto_delete = no
	}
	modules = {
		standard_event_module = {} # Needed for events
		exclusive_diplomacy_module = {
			contact_rule = on_action_only
		}
	}
}

faction = {
	government = no
	observable = no
	ai = {
		enabled = no
	}
	faction = {
		hostile = yes
		needs_border_access = no
		generate_borders = no
		needs_colony = no
	}
	modules = {
		exclusive_diplomacy_module = { # Nothing is allowed, but we need this for relationships.
			contact_rule = on_action_only
		}
		basic_technology_module = {}
	}
}

origin_dragon = { #origin_here_be_dragons dragon. Settings copied from a leviathan, for now
	scaled_difficulty_bonuses = 0.5	# scales to setting
	is_space_critter = yes
	government = no
	blocks_piracy = yes
	destroys_starbases = yes
	observable = no
	ai = {
		enabled = no
	}
	faction = {
		hostile = yes
		needs_border_access = no
		generate_borders = no
		needs_colony = no
	}
	modules = {
		exclusive_diplomacy_module = { contact_rule = on_action_only } # Nothing is allowed, but we need this for relationships.
		basic_technology_module = {}
		standard_event_module = {} # For bouncing events
	}
}

dragon_dummy = { #This country type is only needed for the origin_here_be_dragons first contact story. It should never be used for anything else.
	government = no
	observable = no
	share_communications = no
	ai = {
		enabled = no
	}
	faction = {
		needs_border_access = no
		generate_borders = no
		needs_colony = no
		auto_delete = no
	}
	modules = {
		exclusive_diplomacy_module = { # Nothing is allowed, but we need this for relationships.
		}
		basic_technology_module = {}
	}
}

adversary = {
	show_in_contacts_list = no
	government = no
	observable = no
	ai = {
		enabled = no
	}
	faction = {
		hostile = yes
		needs_border_access = no
		generate_borders = no
		needs_colony = no
	}
	modules = {
		basic_technology_module = {}
		standard_event_module = {}
		exclusive_diplomacy_module = {
			contact_rule = on_action_only
			can_receive = {
				action_declare_war
				action_offer_peace
			}
		}
	}
}

neutral_faction = {
	is_space_critter = yes
	government = no
	observable = no
	ai = {
		enabled = no
	}
	faction = {
		hostile = no
		needs_border_access = no
		generate_borders = no
		needs_colony = no
	}
	modules = {
		exclusive_diplomacy_module = {} # Nothing is allowed, but we need this for relationships.
		basic_technology_module = {}
	}
}

nomad = {
	show_in_contacts_list = yes
	observable = no
	ai = {
		enabled = no
	}
	faction = {
		hostile = no
		needs_border_access = no
		generate_borders = no
		needs_colony = no
	}

	custom_diplomacy = yes

	modules = {
		basic_technology_module = {}
		standard_event_module = {}
		exclusive_diplomacy_module = {}
	}
}

pirate = {
	attack_unarmed_orbital_stations = yes
	government = no
	observable = no
	uses_origins = no
	ai = {
		enabled = no
	}

	faction = {
		hostile = yes
		pirate = yes
		needs_border_access = no
		generate_borders = no
		needs_colony = no
	}
	modules = {
		exclusive_diplomacy_module = {} # Nothing is allowed, but we need this for relationships.
		all_technology_module = {}
		standard_event_module = {}
	}
}

dormant_marauders = {
	attack_unarmed_orbital_stations = yes
	scaled_difficulty_bonuses = 1.0	# scales to setting
	show_in_contacts_list = yes
	custom_diplomacy = yes
	share_survey_data = no
	enforces_borders = no
	needs_survey = no
	government = yes
	has_complete_sensor = yes
	can_have_their_comms_shared = yes
	custom_starbase = starbase_marauder
	observable = no
	ai = {
		enabled = no
	}

	faction = {
		hostile = yes
		pirate = yes
		needs_border_access = no
		generate_borders = yes
		needs_colony = no
		auto_delete = no
	}
	modules = {
		exclusive_diplomacy_module = {} # Nothing is allowed, but we need this for relationships.
		tiered_technology_module = {
			tier = 3
			rare = no
		}
		standard_event_module = {}
	}
}

ruined_marauders = { # Diplomacy no longer possible
	government = no
	observable = no

	ai = {
		enabled = no
	}

	faction = {
		hostile = yes
		pirate = yes
		needs_border_access = no
		generate_borders = no
		needs_colony = no
		auto_delete = no
	}
	modules = {
		exclusive_diplomacy_module = { contact_rule = on_action_only } # Nothing is allowed, but we need this for relationships.
		tiered_technology_module = {
			tier = 3
			rare = no
		}
		standard_event_module = {}
	}
}

awakened_marauders = {
	attack_unarmed_orbital_stations = yes
	scaled_difficulty_bonuses = 1.0	# scales to setting
	destroys_starbases = yes
	show_in_contacts_list = yes
	counts_for_victory = yes
	share_survey_data = no
	custom_diplomacy = yes
	mid_game_crisis = yes
	enforces_borders = no
	needs_survey = no
	has_complete_sensor = yes
	can_have_their_comms_shared = yes
	custom_starbase = starbase_marauder
	observable = yes
	ai = {
		enabled = yes
		modules = {
			horde_interior_minister_module
			horde_military_minister_module
		}
	}

	faction = {
		hostile = yes
		needs_border_access = no
		generate_borders = yes
		needs_colony = no
	}
	modules = {
		exclusive_diplomacy_module = { # Nothing is allowed, but we need this for relationships.
			contact_rule = always
		}
		tiered_technology_module = {
			tier = 3
			rare = no
		}
		standard_event_module = {}
	}
}

fallen_empire = {
	scaled_difficulty_bonuses = 1.0	# scales to setting
	counts_for_victory = yes
	sub_title = "COUNTRY_FALLEN_EMPIRE"
	sub_title_desc = "COUNTRY_FALLEN_EMPIRE_DESC"

	share_survey_data = no
	relations = yes
	fallen_empire = yes
	needs_survey = no
	diplomatic_wars = yes
	ship_disengagement = yes
	army_disengagement = yes
	uses_special_buildables = yes
	observable = yes

	faction = {
		needs_border_access = no
	}

	ai = {
		enabled = yes
		declare_war = yes
		min_navy_for_wars = 0.0
		min_assault_armies_for_wars = @armies_for_declaring_war
		colonizer = no
		internal_policies = no
		modification = no
		construction = no
		starbase_upgrade = no
		limited_construction = yes
		tech = no
		modules = {
			military_minister_module
			foreign_minister_module
			interior_minister_module
		}

		army_data = {
			gene_warrior_army = {
				fraction = {
					factor = 75
					modifier = {
						factor = 0
						NOT = { is_xenophile_f_atlas = yes }
					}
				}
			}

			psionic_army = {
				fraction = {
					factor = 75
					modifier = {
						factor = 0
						NOT = { is_spiritualist_f_atlas = yes }
					}
				}
			}

			xenomorph_army = {
				fraction = {
					factor = 75
					modifier = {
						factor = 0
						NOT = { is_xenophobe_f_atlas = yes }
					}
				}
			}

			robotic_army = {
				fraction = {
					factor = 75
					modifier = {
						factor = 0
						NOT = { is_materialist_f_atlas = yes }
					}
				}
			}

			machine_assault_2 = {
				fraction = {
					factor = 50
					modifier = {
						factor = 0
						NOT = { has_authority = auth_machine_intelligence }
					}
				}
			}

			machine_assault_3 = {
				fraction = {
					factor = 25
					modifier = {
						factor = 0
						NOT = { has_authority = auth_machine_intelligence }
					}
				}
			}
		}
	}
	modules = {
		all_technology_module = {}
		standard_event_module = {}
		standard_leader_module = {}
		standard_economy_module = {}
		standard_species_rights_module = {}
		exclusive_diplomacy_module = {
			contact_rule = on_action_only
			can_receive = {
				action_declare_war
				action_offer_peace
				action_make_rival
				action_end_rivalry
				action_offer_trade_deal
				action_cancel_trade_deal
				action_insult
			}
			can_send = {
				action_declare_war
				action_make_rival
				action_end_rivalry
				action_offer_peace
				action_offer_trade_deal
				action_cancel_trade_deal
				action_open_borders
				action_close_borders
			}
		}
	}

	resources = {
		category = country_base
		produces = {
			energy = 1000
			minerals = 250
			food = 100
			alloys = 100
			consumer_goods = 200
			rare_crystals = 10
			exotic_gases = 10
			volatile_motes = 10
			sr_dark_matter = 2
			sr_living_metal = 2
			sr_zro = 2
			influence = 3
		}
	}
}

awakened_fallen_empire = {
	scaled_difficulty_bonuses = 1.0	# scales to setting
	counts_for_victory = yes
	sub_title = "COUNTRY_AWAKENED_FALLEN_EMPIRE"
	sub_title_desc = "COUNTRY_AWAKENED_FALLEN_EMPIRE_DESC"

	share_survey_data = no
	relations = yes
	fallen_empire = yes
	awakened_fallen_empire = yes
	needs_survey = no
	diplomatic_wars = yes
	ship_disengagement = yes
	army_disengagement = yes
	pop_growth = yes
	uses_special_buildables = yes
	observable = yes

	faction = {
		needs_border_access = no
	}

	ai = {
		enabled = yes
		declare_war = yes
		min_navy_for_wars = 0.2
		min_assault_armies_for_wars = @armies_for_declaring_war
		colonizer = yes
		internal_policies = yes
		starbase_upgrade = no
		modification = no
		government = no
		construction = yes
		tech = yes
		traditions = yes #but no ascension perks!
		modules = {
			military_minister_module
			foreign_minister_module
			interior_minister_module
		}

		army_data = {
			gene_warrior_army = {
				fraction = {
					factor = 75
					modifier = {
						factor = 0
						NOT = { is_xenophile_f_atlas = yes }
					}
				}
			}

			psionic_army = {
				fraction = {
					factor = 75
					modifier = {
						factor = 0
						NOT = { is_spiritualist_f_atlas = yes }
					}
				}
			}

			xenomorph_army = {
				fraction = {
					factor = 75
					modifier = {
						factor = 0
						NOT = { is_xenophobe_f_atlas = yes }
					}
				}
			}

			robotic_army = {
				fraction = {
					factor = 75
					modifier = {
						factor = 0
						NOT = { is_materialist_f_atlas = yes }
					}
				}
			}

			machine_assault_2 = {
				fraction = {
					factor = 50
					modifier = {
						factor = 0
						NOT = { has_authority = auth_machine_intelligence }
					}
				}
			}

			machine_assault_3 = {
				fraction = {
					factor = 25
					modifier = {
						factor = 0
						NOT = { has_authority = auth_machine_intelligence }
					}
				}
			}
		}

		ship_data = {
			constructor = {
				min = 1
				max = 3
				system_mult = 0.25
			}

			colonizer = {
				min = 1
				max = 1
			}

			colossus = {
				min = 1
				max = 1
			}

			massive_ship_fallen_empire = {
				min = 1
				max = 2
				planet_mult = 0.05
			}

			large_ship_fallen_empire = {
				fraction = {
					base = 25
				}
			}
			small_ship_fallen_empire = {
				fraction = {
					base = 75
				}
			}

		}
	}
	modules = {
		all_technology_module = {}
		standard_event_module = {}
		standard_leader_module = {}
		standard_economy_module = {}
		standard_expansion_module = {}
		standard_species_rights_module = {}
		exclusive_diplomacy_module = {
			contact_rule = always
			can_receive = {
				action_declare_war
				action_offer_peace
				action_make_rival
				action_end_rivalry
				action_offer_trade_deal
				action_cancel_trade_deal
				action_insult
				action_ask_to_become_thrall
				action_ask_to_become_dominion
				action_ask_to_become_satellite
				action_ask_to_become_signatory
				action_ask_to_be_released_subject
				action_ask_to_join_federation
				action_invite_to_federation
				action_leave_federation
				action_kick_from_federation
			}
			can_send = {
				action_declare_war
				action_make_rival
				action_end_rivalry
				action_offer_peace
				action_offer_trade_deal
				action_cancel_trade_deal
				action_demand_thrall
				action_demand_dominion
				action_demand_satellite
				action_demand_signatory
				action_release_subject
				action_invite_to_federation
				action_leave_federation
				action_kick_from_federation
				action_open_borders
				action_close_borders
			}
		}
	}

	resources = {
		category = country_base
		produces = {
			energy = 1000
			minerals = 250
			food = 100
			alloys = 100
			consumer_goods = 100
			rare_crystals = 10
			exotic_gases = 10
			volatile_motes = 10
			sr_dark_matter = 2
			sr_living_metal = 2
			sr_zro = 2
			influence = 3
		}
	}
}

primitive = {
	randomize_ethos = yes
	shuffle_pop_ethos = yes
	observable = no

	ai = {
		enabled = no
		construction = no
	}
	faction = {
		hostile = no
		primitive = yes
		needs_border_access = no
		generate_borders = no
		needs_colony = yes
		intel_effects_surveyed = no
	}
	hide_names_if_no_communication = yes
	#custom_diplomacy = yes # This makes primitives show up in the galaxy empire view.

	modules = {
		standard_event_module = {}
		basic_technology_module = {}
		exclusive_diplomacy_module = {
			contact_rule = on_action_only
		}
	}
}

rebel = {
	observable = no
	randomize_ethos = yes
	ai = {
		#enabled = no
		enabled = yes
		declare_war = yes
		colonizer = yes
		internal_policies = yes
		modification = no
		government = no
		construction = yes
		#modules = {
		#	military_minister_module
		#	foreign_minister_module
		#	interior_minister_module
		#}
	}
	modules = {
		standard_event_module = {}
		#standard_economy_module = {}
		standard_leader_module = {}
		#standard_diplomacy_module = {}
		exclusive_diplomacy_module = {
			contact_rule = on_action_only
		}
		standard_technology_module = {}
		standard_trade_routes_module = {}
		#standard_species_rights_module = {}
	}
}

# ambient object country type for moving props around
ambient = {
	show_in_contacts_list = no
	government = no
	observable = no
	uses_origins = no
	ai = {
		enabled = no
	}
	faction = {
		hostile = no
		needs_border_access = no
		generate_borders = no
		needs_colony = no
	}
	modules = {
		exclusive_diplomacy_module = {
			contact_rule = on_action_only
		} # Nothing is allowed, but we need this for relationships.
		#basic_technology_module = {}
	}
}

enclave = {
	blocks_piracy = yes
	show_in_contacts_list = yes
	can_have_their_comms_shared = yes
	government = yes
	is_enclave = yes
	observable = no
	ai = {
		enabled = no
	}
	faction = {
		hostile = no
		needs_border_access = no
		generate_borders = no
		needs_colony = no
	}
	custom_diplomacy = yes
	custom_opinion = yes
	modules = {
		basic_technology_module = {}
		standard_event_module = {}
		exclusive_diplomacy_module = { } # Nothing is allowed, but we need this for relationships.
		#basic_technology_module = {}
	}
}

shroud = {
	is_the_shroud = yes
	show_in_contacts_list = yes
	minimalist_contacts_list_profile = yes
	share_communications = no
	default_ships = no
	government = no
	observable = no
	uses_origins = no
	ai = {
		enabled = no
	}
	faction = {
		hostile = no
		needs_border_access = no
		generate_borders = no
		needs_colony = no
		auto_delete = no
	}
	custom_diplomacy = yes
	modules = {
		basic_technology_module = {}
		exclusive_diplomacy_module = {
			contact_rule = on_action_only
		}
	}
}

shroud_spirits = {
	is_space_critter = yes
	blocks_piracy = yes
	government = no
	observable = no
	uses_origins = no
	ai = {
		enabled = no
	}
	faction = {
		hostile = yes
		needs_border_access = no
		generate_borders = no
		needs_colony = no
	}
	modules = {
		exclusive_diplomacy_module = {
			contact_rule = on_action_only
		}
		basic_technology_module = {}
		standard_event_module = {}
	}
}

gdf = {
	blocks_piracy = yes
	government = no
	observable = no
	uses_origins = no
	playable = no
	needs_survey = no
	ship_disengagement = yes
	has_complete_sensor = yes
	ai = {
		enabled = yes
		modules = {
			military_minister_module
			galactic_community_patrol_military_minister_module
		}

		ship_data = {
			constructor = {
				min = 3
				max = 3
			}

			science	= {
				min = 3
				max = 3
			}

			colonizer = {
				min = 1
				max = 1
			}

			juggernaut = {
				min = 1
				max = 1
			}

			colossus = {
				min = 1
				max = 1
			}

			titan = {
				min = 1
				max = 2
			}

			battleship = {
				fraction = {
					modifier = {
						add = 25
						has_technology = tech_battleships
					}
				}
			}

			cruiser = {
				fraction = {
					modifier = {
						add = 35
						has_technology = tech_cruisers
					}
					modifier = {
						add = -10
						has_technology = tech_battleships
					}
				}
			}

			destroyer = {
				fraction = {
					modifier = {
						add = 50
						has_technology = tech_destroyers
					}
					modifier = {
						add = -15
						has_technology = tech_cruisers
					}
					modifier = {
						add = -10
						has_technology = tech_battleships
					}
				}
			}

			corvette = {
				fraction = {
					base = 100
					modifier = {
						add = -25
						has_technology = tech_destroyers
					}
					modifier = {
						add = -45
						has_technology = tech_cruisers
					}
					modifier = {
						add = -5
						has_technology = tech_battleships
					}
				}
			}
		}
	}
	faction = {
		hostile = no
		needs_border_access = yes
		generate_borders = no
		needs_colony = no
	}
	modules = {
		exclusive_diplomacy_module = {
			contact_rule = always
		}
		all_technology_module = {}
		standard_event_module = {}
	}
}

#################
# CRISIS-RELATED
#################

swarm = {
	attack_unarmed_orbital_stations = yes
	scaled_difficulty_bonuses = 3.0	# scales to setting
	end_game_crisis = yes
	destroys_starbases = yes
	can_own_empty_planets = yes
	needs_survey = no
	has_complete_sensor = yes
	can_planets_be_attacked = no
	has_capital = no
	enforces_borders = no
	government = no
	colonizing_title = "COLONIZING_PLANET_SWARM"
	colonizing_desc = "PLANET_VIEW_UNDER_COLONIZATION_SWARM_DESC"
	home_system = swarm_invasion_target_1
	custom_starbase = starbase_swarm
	observable = yes
	uses_origins = no

	ai = {
		enabled = yes
		colonizer = yes
		construction = yes
		modules = {
			swarm_interior_minister_module
			swarm_military_minister_module
		}
	}
	faction = {
		needs_colony = no
		hostile = yes
		needs_border_access = no
	}

	custom_diplomacy = yes

	modules = {
		standard_event_module = {}
		standard_leader_module = {}
		all_technology_module = {}
		exclusive_diplomacy_module = {
			contact_rule = always
		}
	}
}

extradimensional = {
	attack_unarmed_orbital_stations = yes
	scaled_difficulty_bonuses = 3.0	# scales to setting
	end_game_crisis = yes
	destroys_starbases = yes
	needs_survey = no
	has_complete_sensor = yes
	can_planets_be_attacked = no
	has_capital = no
	enforces_borders = no
	home_system = extradimensional_origin_system
	custom_starbase = starbase_exd_0
	observable = yes
	uses_origins = no
	targets = {
		extradimensional_2
		extradimensional_3
	}
	government = no
	ai = {
		enabled = yes
		colonizer = yes
		construction = yes
		modules = {
			invaders_military_minister_module
			invaders_interior_minister_module
		}
	}
	faction = {
		needs_colony = no
		hostile = yes
		needs_border_access = no
	}

	custom_diplomacy = yes

	modules = {
		standard_event_module = {}
		standard_leader_module = {}
		all_technology_module = {}
		exclusive_diplomacy_module = {
			contact_rule = always
		}
	}
}

extradimensional_2 = {
	attack_unarmed_orbital_stations = yes
	scaled_difficulty_bonuses = 3.0	# scales to setting
	end_game_crisis = yes
	destroys_starbases = yes
	needs_survey = no
	has_complete_sensor = yes
	can_planets_be_attacked = no
	has_capital = no
	enforces_borders = no
	home_system = extradimensional_second_portal_system
	custom_starbase = starbase_exd
	observable = yes
	uses_origins = no
	targets = {
		extradimensional
		extradimensional_3
	}
	government = no
	ai = {
		enabled = yes
		colonizer = yes
		construction = yes
		modules = {
			invaders_military_minister_module
		}
	}
	faction = {
		needs_colony = no
		hostile = yes
		needs_border_access = no
	}

	custom_diplomacy = yes

	modules = {
		standard_event_module = {}
		standard_leader_module = {}
		all_technology_module = {}
		exclusive_diplomacy_module = {
			contact_rule = always
		}
	}
}

extradimensional_3 = {
	attack_unarmed_orbital_stations = yes
	scaled_difficulty_bonuses = 3.0	# scales to setting
	end_game_crisis = yes
	destroys_starbases = yes
	needs_survey = no
	has_complete_sensor = yes
	can_planets_be_attacked = no
	has_capital = no
	enforces_borders = no
	home_system = extradimensional_third_portal_system
	custom_starbase = starbase_exd
	observable = yes
	uses_origins = no
	targets = {
		extradimensional
		extradimensional_2
	}
	government = no
	ai = {
		enabled = yes
		colonizer = yes
		construction = yes
		modules = {
			invaders_military_minister_module
		}
	}
	faction = {
		needs_colony = no
		hostile = yes
		needs_border_access = no
	}

	custom_diplomacy = yes

	modules = {
		standard_event_module = {}
		standard_leader_module = {}
		all_technology_module = {}
		exclusive_diplomacy_module = {
			contact_rule = always
		}
	}
}

ai_empire = {
	attack_unarmed_orbital_stations = yes
	scaled_difficulty_bonuses = 3.0	# scales to setting
	end_game_crisis = yes
	destroys_starbases = yes
	can_own_empty_planets = yes
	needs_survey = no
	has_complete_sensor = yes
	can_planets_be_attacked = yes
	has_capital = no
	playable = no
	government = no
	enforces_borders = no
	minimalist_contacts_list_profile = yes
	home_system = AI_lair
	hub_system = AI_hub
	custom_starbase = starbase_ai
	observable = yes
	uses_origins = no
	ai = {
		enabled = yes
		colonizer = yes
		government = no
		construction = yes
		modules = {
			machine_interior_minister_module
			machine_military_minister_module
		}
	}

	faction = {
		needs_colony = no
		hostile = yes
		needs_border_access = no
	}

	custom_diplomacy = yes

	modules = {
		standard_event_module = {}
		standard_leader_module = {}
		all_technology_module = {}
		exclusive_diplomacy_module = {
			contact_rule = always
		}
	}
}

cybrex_empire = {
	scaled_difficulty_bonuses = 3.0
	can_own_empty_planets = yes
	can_planets_be_attacked = no
	needs_survey = no
	has_complete_sensor = yes
	government = no
	playable = no
	enforces_borders = no
	minimalist_contacts_list_profile = yes
	home_system = cybrex_beta
	observable = yes
	ai = {
		enabled = yes
		modules = {
			anti_crisis_military_minister_module
		}
	}
	faction = {
		hostile = no
		needs_border_access = no
		needs_colony = no
		generate_borders = yes
	}

	custom_diplomacy = yes

	modules = {
		exclusive_diplomacy_module = {
			contact_rule = always
		}
		all_technology_module = {}
		standard_event_module = {}
	}
}

sentinels = {
	scaled_difficulty_bonuses = 3.0
	home_system = sentinel_system
	custom_diplomacy = yes
	share_survey_data = no
	enforces_borders = no
	needs_survey = no
	has_complete_sensor = yes
	observable = yes
	ai = {
		enabled = yes
		modules = {
			anti_crisis_military_minister_module
		}
	}
	faction = {
		hostile = no
		needs_border_access = no
		needs_colony = no
		generate_borders = yes
	}

	modules = {
		exclusive_diplomacy_module = { contact_rule = on_action_only } # Nothing is allowed, but we need this for relationships.
		all_technology_module = {}
		standard_event_module = {}
	}
}

gate_builders = {
	scaled_difficulty_bonuses = 3.0
	custom_diplomacy = yes
	share_survey_data = no
	enforces_borders = no
	needs_survey = no
	has_complete_sensor = yes
	observable = yes
	custom_starbase = starbase_gatebuilders
	ai = {
		enabled = yes
		modules = {
			anti_crisis_military_minister_module
		}
	}
	faction = {
		hostile = no
		needs_border_access = no
		needs_colony = no
		generate_borders = yes
	}

	modules = {
		exclusive_diplomacy_module = { contact_rule = on_action_only } # Nothing is allowed, but we need this for relationships.
		all_technology_module = {}
		standard_event_module = {}
		standard_economy_module = {}
	}

	resources = {
		category = country_base
		produces = {
			energy = 100
			minerals = 10
			physics_research = 10
			society_research = 10
			engineering_research = 10
			influence = 3
			unity = 2
			alloys = 125
			volatile_motes = 20
			rare_crystals = 1
			exotic_gases = 1
		}
	}
}

gray = {
	show_in_contacts_list = yes
	minimalist_contacts_list_profile = yes
	share_communications = no
	default_ships = no
	government = no
	uses_origins = no
	ai = {
		enabled = no
	}
	faction = {
		hostile = no
		needs_border_access = no
		generate_borders = no
		needs_colony = no
		auto_delete = no
	}
	custom_diplomacy = yes
	modules = {
		basic_technology_module = {}
		exclusive_diplomacy_module = {
			contact_rule = on_action_only
		}
	}
}



#################
# SPACE MONSTERS
#################

tiyanki = {
	share_communications = no
	is_space_critter = yes
	government = no
	observable = no
	ai = {
		enabled = yes
		modules = {
			space_monsters_module
		}
		avoid_enemies = yes
	}
	faction = {
		hostile = no
		needs_border_access = no
		generate_borders = no
		needs_colony = no
		space_creatures = yes
	}
	modules = {
		exclusive_diplomacy_module = {} # Nothing is allowed, but we need this for relationships.
		basic_technology_module = {}
		standard_event_module = {} # For bouncing events
	}
}

# Tiyanki Spawn System Garrison
tiyanki_garrison = {
	share_communications = no
	is_space_critter = yes
	government = no
	observable = no
	ai = {
		enabled = no
	}
	faction = {
		hostile = no
		needs_border_access = no
		generate_borders = no
		needs_colony = no
		space_creatures = yes
	}
	modules = {
		exclusive_diplomacy_module = {} # Nothing is allowed, but we need this for relationships.
		basic_technology_module = {}
		standard_event_module = {} # For bouncing events
	}
}

amoeba = {
	share_communications = no
	is_space_critter = yes
	blocks_piracy = yes
	government = no
	observable = no
	ai = {
		enabled = yes
		modules = {
			space_monsters_module
		}
		avoid_enemies = yes
	}
	faction = {
		hostile = yes
		needs_border_access = no
		generate_borders = no
		needs_colony = no
		space_creatures = yes
	}
	modules = {
		exclusive_diplomacy_module = {} # Nothing is allowed, but we need this for relationships.
		basic_technology_module = {}
	}
	pre_communications_fleet_name = "NO_COMMUNICATIONS_AMOEBA"
}

amoeba_borderless = { #same as above, but will cross borders
	share_communications = no
	is_space_critter = yes
	blocks_piracy = yes
	government = no
	observable = no
	ai = {
		enabled = yes
		modules = {
			space_monsters_module
		}
	}
	faction = {
		hostile = yes
		needs_border_access = no
		generate_borders = no
		needs_colony = no
		space_creatures = yes
	}
	modules = {
		exclusive_diplomacy_module = {} # Nothing is allowed, but we need this for relationships.
		basic_technology_module = {}
	}
	pre_communications_fleet_name = "NO_COMMUNICATIONS_AMOEBA"
}

amoeba_garrison = {
	share_communications = no
	is_space_critter = yes
	blocks_piracy = yes
	government = no
	observable = no
	ai = {
		enabled = no
	}
	faction = {
		hostile = yes
		needs_border_access = no
		generate_borders = no
		needs_colony = no
		space_creatures = yes
	}
	modules = {
		exclusive_diplomacy_module = {} # Nothing is allowed, but we need this for relationships.
		basic_technology_module = {}
	}
	pre_communications_fleet_name = "NO_COMMUNICATIONS_AMOEBA"
}

amoeba_faction = { #same as "faction", but doesn't block first contact site from spawning
	government = no
	observable = no
	ai = {
		enabled = no
	}
	faction = {
		hostile = yes
		needs_border_access = no
		generate_borders = no
		needs_colony = no
	}
	modules = {
		exclusive_diplomacy_module = {} # Nothing is allowed, but we need this for relationships.
		basic_technology_module = {}
	}
}

crystal = {
	share_communications = no
	is_space_critter = yes
	blocks_piracy = yes
	government = no
	observable = no
	ai = {
		enabled = no
	}
	faction = {
		hostile = yes
		needs_border_access = no
		generate_borders = no
		needs_colony = no
		space_creatures = yes
	}
	modules = {
		exclusive_diplomacy_module = {} # Nothing is allowed, but we need this for relationships.
		basic_technology_module = {}
	}
}

crystal_faction = { #same as "faction", but doesn't block first contact site from spawning
	government = no
	observable = no
	ai = {
		enabled = no
	}
	faction = {
		hostile = yes
		needs_border_access = no
		generate_borders = no
		needs_colony = no
	}
	modules = {
		exclusive_diplomacy_module = {} # Nothing is allowed, but we need this for relationships.
		basic_technology_module = {}
	}
}

drone = {
	always_valid_target_aggressive = yes
	share_communications = no
	is_space_critter = yes
	blocks_piracy = yes
	government = no
	observable = no
	ai = {
		enabled = no
	}
	faction = {
		hostile = yes
		needs_border_access = no
		generate_borders = no
		needs_colony = no
		space_creatures = yes
	}
	modules = {
		exclusive_diplomacy_module = {} # Nothing is allowed, but we need this for relationships.
		basic_technology_module = {}
	}
}

drone_faction = {
	government = no
	observable = no
	ai = {
		enabled = no
	}
	faction = {
		hostile = yes
		needs_border_access = no
		generate_borders = no
		needs_colony = no
	}
	modules = {
		exclusive_diplomacy_module = {} # Nothing is allowed, but we need this for relationships.
		basic_technology_module = {}
	}
}

cloud = {
	share_communications = no
	is_space_critter = yes
	blocks_piracy = yes
	government = no
	observable = no
	ai = {
		enabled = no
	}
	faction = {
		hostile = yes
		needs_border_access = no
		generate_borders = no
		needs_colony = no
		space_creatures = yes
	}
	modules = {
		exclusive_diplomacy_module = {} # Nothing is allowed, but we need this for relationships.
		basic_technology_module = {}
	}
}

portal_holder = {
	show_in_contacts_list = no
	is_space_critter = yes
	government = no
	observable = no
	ai = {
		enabled = no
	}
	faction = {
		hostile = no
		needs_border_access = no
		generate_borders = no
		needs_colony = no
		auto_delete = no
	}
	modules = {
		exclusive_diplomacy_module = {} # Nothing is allowed, but we need this for relationships.
		basic_technology_module = {}
	}
}

feral_prethoryn = {
	is_space_critter = yes
	blocks_piracy = yes
	government = no
	enforces_borders = no
	observable = no
	ai = {
		enabled = yes
		modules = {
			space_monsters_module
		}
		avoid_enemies = yes
	}
	faction = {
		hostile = yes
		needs_border_access = no
		generate_borders = yes
		needs_colony = no
		space_creatures = yes
	}
	modules = {
		standard_event_module = {}
		exclusive_diplomacy_module = {}
		basic_technology_module = {}
	}
}

feral_prethoryn_infighting = {
	is_space_critter = yes
	blocks_piracy = yes
	government = no
	observable = no
	ai = {
		enabled = no
	}
	faction = {
		hostile = yes
		needs_border_access = no
		generate_borders = no
		needs_colony = no
		space_creatures = yes
	}
	modules = {
		standard_event_module = {}
		exclusive_diplomacy_module = {}
		basic_technology_module = {}
	}
}

marauder_raiders = {
	attack_unarmed_orbital_stations = yes
	scaled_difficulty_bonuses = 1.0	# scales to setting
	government = no
	observable = no
	ai = {
		enabled = no
	}
	faction = {
		hostile = no
		needs_border_access = no
		generate_borders = no
		needs_colony = no
	}
	#custom_diplomacy = yes
	modules = {
		standard_event_module = {}
		exclusive_diplomacy_module = {
			contact_rule = on_action_only
		}
		basic_technology_module = {}
	}
}

vol = {
	show_in_contacts_list = no
	observable = no
	ai = {
		enabled = no
	}
	faction = {
		hostile = yes
		needs_border_access = no
		generate_borders = no
		needs_colony = no
		auto_delete = no
	}
	modules = {
		basic_technology_module = {}
		standard_event_module = {}
		exclusive_diplomacy_module = {
			contact_rule = on_action_only
			can_receive = {
				action_declare_war
				action_offer_peace
			}
		}
	}
}

ratlings = {
	share_communications = no
	observable = no
	ai = {
		enabled = no
		construction = no
	}
	faction = {
		hostile = no
		primitive = no
		needs_border_access = no
		generate_borders = no
		needs_colony = yes
		intel_effects_surveyed = no
	}
	hide_names_if_no_communication = yes

	modules = {
		standard_event_module = {}
		basic_technology_module = {}
		exclusive_diplomacy_module = {
			contact_rule = on_action_only
		}
		#exclusive_diplomacy_module = {} # Nothing is allowed, but we need this for relationships.
	}
}

enigmatic_cache = {
	is_space_critter = yes
	destroys_starbases = no
	#blocks_pirate = yes
	observable = no
	government = no
	ai = {
		enabled = no
	}
	faction = {
		neutral = yes
		needs_border_access = no
		generate_borders = no
		needs_colony = no
		auto_delete = no
	}
	modules = {
		exclusive_diplomacy_module = { contact_rule = on_action_only } # Nothing is allowed, but we need this for relationships.
		basic_technology_module = {}
		standard_event_module = {}
	}
}

gray_goo = {
	attack_unarmed_orbital_stations = yes
	scaled_difficulty_bonuses = 1.0	# scales to setting
	destroys_starbases = yes
	show_in_contacts_list = no
	share_survey_data = no
	custom_diplomacy = no
	mid_game_crisis = yes
	enforces_borders = no
	needs_survey = no
	has_complete_sensor = yes
	can_have_their_comms_shared = yes
	government = no
	observable = no
	ai = {
		enabled = yes
		modules = {
			berserk_military_minister_module
		}
	}

	faction = {
		hostile = yes
		needs_border_access = no
		generate_borders = yes
		needs_colony = no
	}
	modules = {
		exclusive_diplomacy_module = {
			contact_rule = on_action_only
		} # Nothing is allowed, but we need this for relationships.
		tiered_technology_module = {
			tier = 3
			rare = no
		}
		standard_event_module = {}
	}
}

mechanocalibrator = {
	share_communications = no
	observable = no
	government = no
	ai = {
		enabled = no
		construction = no
	}
	faction = {
		hostile = no
		primitive = no
		needs_border_access = no
		generate_borders = no
		needs_colony = no
	}
	hide_names_if_no_communication = yes

	modules = {
		standard_event_module = {}
		basic_technology_module = {}
		exclusive_diplomacy_module = {
			contact_rule = on_action_only
		}
		#exclusive_diplomacy_module = {} # Nothing is allowed, but we need this for relationships.
	}
}

vluur = {
	share_communications = no
	is_space_critter = yes
	government = no
	observable = no
	ai = {
		enabled = yes
		modules = {
			space_monsters_module
		}
		avoid_enemies = yes
	}
	faction = {
		hostile = no
		needs_border_access = no
		generate_borders = no
		needs_colony = no
		space_creatures = yes
	}
	modules = {
		exclusive_diplomacy_module = { contact_rule = on_action_only } # Nothing is allowed, but we need this for relationships.
		basic_technology_module = {}
		standard_event_module = {} # For bouncing events
	}
}